%YAML 1.1
%TAG !u! tag:unity3d.com,2011:
--- !u!1001 &100100000
Prefab:
  m_ObjectHideFlags: 1
  serializedVersion: 2
  m_Modification:
    m_TransformParent: {fileID: 0}
    m_Modifications: []
    m_RemovedComponents: []
  m_SourcePrefab: {fileID: 0}
  m_RootGameObject: {fileID: 1903237395264808}
  m_IsPrefabAsset: 1
--- !u!1 &1903237395264808
GameObject:
  m_ObjectHideFlags: 0
  m_CorrespondingSourceObject: {fileID: 0}
  m_PrefabInternal: {fileID: 100100000}
  serializedVersion: 6
  m_Component:
  - component: {fileID: 4560719929199912}
  - component: {fileID: 114291051611986384}
  m_Layer: 0
  m_Name: Pooling
  m_TagString: Pooling
  m_Icon: {fileID: 0}
  m_NavMeshLayer: 0
  m_StaticEditorFlags: 0
  m_IsActive: 1
--- !u!4 &4560719929199912
Transform:
  m_ObjectHideFlags: 1
  m_CorrespondingSourceObject: {fileID: 0}
  m_PrefabInternal: {fileID: 100100000}
  m_GameObject: {fileID: 1903237395264808}
  m_LocalRotation: {x: -0, y: -0, z: -0, w: 1}
  m_LocalPosition: {x: -3.57074, y: 4.0879636, z: -0.11181943}
  m_LocalScale: {x: 1, y: 1, z: 1}
  m_Children: []
  m_Father: {fileID: 0}
  m_RootOrder: 0
  m_LocalEulerAnglesHint: {x: 0, y: 0, z: 0}
--- !u!114 &114291051611986384
MonoBehaviour:
  m_ObjectHideFlags: 1
  m_CorrespondingSourceObject: {fileID: 0}
  m_PrefabInternal: {fileID: 100100000}
  m_GameObject: {fileID: 1903237395264808}
  m_Enabled: 1
  m_EditorHideFlags: 0
  m_Script: {fileID: 11500000, guid: d7e6251242113454b984c7c4c48b562b, type: 3}
  m_Name: 
  m_EditorClassIdentifier: 
  startCount: 10
  canGrow: 1
  damageText: {fileID: 1759775528557368, guid: c3273196f80bf1c429e7f73cd2543bf7, type: 2}
  muzzleEffect: {fileID: 1237954733071594, guid: d1faa907d93cc3b40bd839c3849d7655,
    type: 2}
  damageTextPooledList: []
  muzzlePooledList: []
