%YAML 1.1
%TAG !u! tag:unity3d.com,2011:
--- !u!78 &1
TagManager:
  serializedVersion: 2
  tags:
  - Weapon
  - Bullet
  - Weapons
  - Manager
  - ItemStats
  - Enemy
  - Pooling
  - Wall
  - Gold
  - Room
  layers:
  - Default
  - TransparentFX
  - Ignore Raycast
  - 
  - Water
  - UI
  - 
  - 
  - Wall
  - Ground
  - Bullet
  - Player
  - Item
  - Enemy
  - Character
  - Room
  - 
  - 
  - 
  - 
  - 
  - 
  - 
  - 
  - 
  - 
  - 
  - 
  - 
  - 
  - 
  - 
  m_SortingLayers:
  - name: Default
    uniqueID: 0
    locked: 0
  - name: Character
    uniqueID: 1898288391
    locked: 0
